…
    ## # A tibble: 0 × 6
    ## # … with 6 variables: address <chr>, city <chr>, state <chr>, zip <chr>,
    ## #   longitude <dbl>, latitude <dbl>

### Exercise 6

…

``` r
c %>%
  mutate(country = "United States")
```

    ## # A tibble: 1,643 × 7
    ##    address                        city       state zip   longi…¹ latit…² country
    ##    <chr>                          <chr>      <chr> <chr>   <dbl>   <dbl> <chr>  
    ##  1 2900 Denali                    Anchorage  AK    99503  -150.     61.2 United…
    ##  2 3850 Debarr Road               Anchorage  AK    99508  -150.     61.2 United…
    ##  3 1929 Airport Way               Fairbanks  AK    99701  -148.     64.8 United…
    ##  4 230 Connector Dr               Auburn     AL    36849   -85.5    32.6 United…
    ##  5 224 Daniel Payne Drive N       Birmingham AL    35207   -86.8    33.6 United…
    ##  6 900 16th St S, Commons on Gree Birmingham AL    35294   -86.8    33.5 United…
    ##  7 5931 Alabama Highway, #157     Cullman    AL    35056   -86.9    34.2 United…
    ##  8 2190 Ross Clark Circle         Dothan     AL    36301   -85.4    31.2 United…
    ##  9 900 Tyson Rd                   Hope Hull… AL    36043   -86.4    32.2 United…
    ## 10 4874 University Drive          Huntsville AL    35816   -86.7    34.7 United…
    ## # … with 1,633 more rows, and abbreviated variable names ¹​longitude, ²​latitude
…
